program TestProgram;
var x, y, z, i: integer;
    c: char;
    s, l: string;
    b: boolean;
    a: array [0..4] of integer;

begin
    writeln ("Enter the x");
    readln(l);

    i := 0;

    while i<4 do
     begin
 
    	a[i] := s + i;
 //fgsdgdfgdfgdfgd
     end;

     y := a[4];
     z := 10;

(*gdfgdfg
	gdfgdf
dfghdfgdf
fgdfg  *)
     forthif (y - z); then
	begin
	     b := true; 
	     b := false;
	     b := true;
	end;

     if b == true then
	begin
	     s := "y-Z < 0 OR > 0";
   	     c := 'T';
	end;

   

     writeln(s);
end.