org 100h
jmp start
l db 80,0, 80 dup(0),'$'
value1 db 10,13,"Enter the string $"
endl db 10, 13, '$'
b dw 1
s db 80,0,80 dup(0),'$'
c db '$'
nb db '$'
i dw 0
x db 0
y dw 0
v dw 0
z dw 0
ff db 0
a db 4 dup (0)
temp db 13, 10, 'y-z<0$'
temp1 db 13, 10, 'T$'
temp3 db 13, 10, 'F$'
start:
      mov dx,value1
      mov ah,09h
      int 21h
      mov dx,endl
      mov ah,09
      int 21h
      mov ah,3fh
      mov dx, l
      int 21h
      mov ax, 0
      mov word [i],ax
      mov bx,0
 mywhile:
       cmp bx,4
       je @endwhile
       mov si,a
       xor ax,ax
       mov dx ,[v]
       add dx,bx
       mov ax,dx
       mov [si],ax
       inc si
       inc bx
       call mywhile
@endwhile:
      mov word [y],bx
      mov ax, 10
      mov word [z],ax
      mov bx,[y]
      mov ax,[z]
      sub bx,ax
      cmp bx,0
      je @nol
      cmp bx,0
      jg @bolNol
      cmp bx,0
      jl @menNol
@nol:
     mov word [b],1
     jmp finishIfFort
@bolNol:
     mov word [b],0
     jmp finishIfFort
@menNol:
     mov word [b],1
     jmp finishIfFort
finishIfFort:
      mov dx,[b]
      cmp dx,1
      jnz @else
      mov ax, temp
      mov word [s],ax
      mov ax, temp1
      mov word [c],ax
      call endif
@else:
      mov ax, l
      mov word [s],ax
      mov ax, temp3
      mov word [c],ax
endif:
      mov dx,word [s]
mov ah,09h
int 21h
mov dx,endl
mov ah,09
int 21h
int 16h
int 20h
